00000000000000000010
00000000000000000000
00000000000000000000
00000000000000000000
01000000001000000000
00000000000000000000
00000000000000000000
00000000000000000000
02000000002000000020
00000000000000000000
00000000000000000000
03000000003000000030